<?xml version="1.0" encoding="UTF-8" standalone="no"?>
<svg
   xmlns:dc="http://purl.org/dc/elements/1.1/"
   xmlns:cc="http://creativecommons.org/ns#"
   xmlns:rdf="http://www.w3.org/1999/02/22-rdf-syntax-ns#"
   xmlns:svg="http://www.w3.org/2000/svg"
   xmlns="http://www.w3.org/2000/svg"
   xmlns:sodipodi="http://sodipodi.sourceforge.net/DTD/sodipodi-0.dtd"
   xmlns:inkscape="http://www.inkscape.org/namespaces/inkscape"
   viewBox="0 0 35 35"
   width="70"
   height="70"
   id="svg2"
   version="1.1"
   inkscape:version="0.48.4 r9939"
   sodipodi:docname="suggestion.svg">
  <metadata
     id="metadata10">
    <rdf:RDF>
      <cc:Work
         rdf:about="">
        <dc:format>image/svg+xml</dc:format>
        <dc:type
           rdf:resource="http://purl.org/dc/dcmitype/StillImage" />
      </cc:Work>
    </rdf:RDF>
  </metadata>
  <defs
     id="defs8" />
  <sodipodi:namedview
     pagecolor="#ffffff"
     bordercolor="#666666"
     borderopacity="1"
     objecttolerance="10"
     gridtolerance="10"
     guidetolerance="10"
     inkscape:pageopacity="0"
     inkscape:pageshadow="2"
     inkscape:window-width="1366"
     inkscape:window-height="713"
     id="namedview6"
     showgrid="false"
     inkscape:zoom="4.9166667"
     inkscape:cx="105.59687"
     inkscape:cy="41.722354"
     inkscape:window-x="0"
     inkscape:window-y="27"
     inkscape:window-maximized="1"
     inkscape:current-layer="svg2" />
  <path
     sodipodi:type="arc"
     style="fill:#000000;fill-opacity:1;stroke-width:5;stroke-linejoin:round;stroke-miterlimit:4;stroke-opacity:1;stroke-dasharray:none"
     id="path3772-1"
     sodipodi:cx="16.875"
     sodipodi:cy="19.598215"
     sodipodi:rx="0.53571427"
     sodipodi:ry="0.49107143"
     d="m 17.410714,19.598215 a 0.53571427,0.49107143 0 1 1 -1.071428,0 0.53571427,0.49107143 0 1 1 1.071428,0 z"
     transform="matrix(0.49711084,0,0,0.71381827,4.0083521,-4.4749154)" />
  <path
     style="color:#000000;fill:#000000;fill-opacity:0;fill-rule:nonzero;stroke-width:2.61055875000000004;stroke-linecap:butt;stroke-linejoin:round;stroke-miterlimit:4;stroke-opacity:1;stroke-dasharray:none;stroke-dashoffset:0;marker:none;visibility:visible;display:inline;overflow:visible;enable-background:accumulate"
     d="M 1.3421609,1.4088698 1.29483,18.955388 l 5.0563002,0 0.1031292,9.442724 5.9030186,-9.458566 10.850962,-0.106715 0.0085,-17.3666558 z"
     id="path3770"
     inkscape:connector-curvature="0"
     sodipodi:nodetypes="cccccccc" />
  <path
     sodipodi:type="arc"
     style="fill:#000000;fill-opacity:1;stroke-width:5;stroke-linejoin:round;stroke-miterlimit:4;stroke-opacity:1;stroke-dasharray:none"
     id="path3772"
     sodipodi:cx="16.875"
     sodipodi:cy="19.598215"
     sodipodi:rx="0.53571427"
     sodipodi:ry="0.49107143"
     d="m 17.410714,19.598215 a 0.53571427,0.49107143 0 1 1 -1.071428,0 0.53571427,0.49107143 0 1 1 1.071428,0 z"
     transform="matrix(0.49711084,0,0,0.71381827,-1.1316474,-4.4481837)" />
  <path
     sodipodi:type="arc"
     style="fill:#000000;fill-opacity:1;stroke-width:5;stroke-linejoin:round;stroke-miterlimit:4;stroke-opacity:1;stroke-dasharray:none"
     id="path3772-2"
     sodipodi:cx="16.875"
     sodipodi:cy="19.598215"
     sodipodi:rx="0.53571427"
     sodipodi:ry="0.49107143"
     d="m 17.410714,19.598215 a 0.53571427,0.49107143 0 1 1 -1.071428,0 0.53571427,0.49107143 0 1 1 1.071428,0 z"
     transform="matrix(0.49711084,0,0,0.71381827,9.3718302,-4.6888563)" />
  <path
     style="font-size:medium;font-style:normal;font-variant:normal;font-weight:normal;font-stretch:normal;text-indent:0;text-align:start;text-decoration:none;line-height:normal;letter-spacing:normal;word-spacing:normal;text-transform:none;direction:ltr;block-progression:tb;writing-mode:lr-tb;text-anchor:start;baseline-shift:baseline;fill-opacity:1;fill-rule:nonzero;stroke:none;stroke-width:5;marker:none;visibility:visible;display:inline;overflow:visible;enable-background:accumulate;font-family:Sans;-inkscape-font-specification:Sans"
     d="m 23.085453,4.9335364 -0.01422,2.994935 9.585185,0.074968 0.05689,14.5634081 -3.92509,0 c -0.590969,0 -1.13025,0.700975 -1.137708,1.478788 l -0.05689,5.353761 -3.92509,-6.28962 c -0.210958,-0.346776 -0.544186,-0.559082 -0.881724,-0.56164 l -8.001201,0.131975 -1.939516,2.919468 9.400306,-0.05613 5.560546,8.910335 c 0.29217,0.471641 0.815919,0.667856 1.252967,0.469333 0.437049,-0.198523 0.757435,-0.778126 0.766463,-1.386605 l 0.08533,-7.974352 3.939312,0 c 0.595686,-6.3e-5 1.137648,-0.713386 1.137708,-1.497499 L 34.931829,6.5247145 C 34.931817,5.7469008 34.399271,5.0370702 33.808343,5.0272782 z"
     id="path3770-4"
     inkscape:connector-curvature="0"
     sodipodi:nodetypes="cccccccccccccsccccccc" />
</svg>
